net/javaguides/helloworld/config/SpringMvcDispatcherServletInitializer.class
net/javaguides/helloworld/config/AppConfig.class
net/javaguides/helloworld/controller/HelloWorldController.class
net/javaguides/helloworld/model/HelloWorld.class
